<svg xmlns="http://www.w3.org/2000/svg" width="960" height="500"><defs><style type="text/css"><![CDATA[ 
.boxoutline line {
  stroke: #000;
}
.boxoutline rect {
  stroke: #000;
  fill: #fff;
}
.median line {
  stroke: red
}
.grid line {
  stroke: lightgrey;
  stroke-opacity: 0.7;
  shape-rendering: crispEdges;
}
 ]]></style></defs><g transform="translate(60,10)"><g class="axis axis--y" fill="none" font-size="10" font-family="sans-serif" text-anchor="end"><path class="domain" stroke="#000" d="M-6,430.5H0.5V0.5H-6"></path><g class="tick" opacity="1" transform="translate(0,426.41772151898795)"><line stroke="#000" x2="-6"></line><text fill="#000" x="-9" dy="0.32em">40</text></g><g class="tick" opacity="1" transform="translate(0,399.20253164557016)"><line stroke="#000" x2="-6"></line><text fill="#000" x="-9" dy="0.32em">42</text></g><g class="tick" opacity="1" transform="translate(0,371.9873417721524)"><line stroke="#000" x2="-6"></line><text fill="#000" x="-9" dy="0.32em">44</text></g><g class="tick" opacity="1" transform="translate(0,344.77215189873453)"><line stroke="#000" x2="-6"></line><text fill="#000" x="-9" dy="0.32em">46</text></g><g class="tick" opacity="1" transform="translate(0,317.55696202531675)"><line stroke="#000" x2="-6"></line><text fill="#000" x="-9" dy="0.32em">48</text></g><g class="tick" opacity="1" transform="translate(0,290.3417721518989)"><line stroke="#000" x2="-6"></line><text fill="#000" x="-9" dy="0.32em">50</text></g><g class="tick" opacity="1" transform="translate(0,263.1265822784811)"><line stroke="#000" x2="-6"></line><text fill="#000" x="-9" dy="0.32em">52</text></g><g class="tick" opacity="1" transform="translate(0,235.91139240506334)"><line stroke="#000" x2="-6"></line><text fill="#000" x="-9" dy="0.32em">54</text></g><g class="tick" opacity="1" transform="translate(0,208.69620253164553)"><line stroke="#000" x2="-6"></line><text fill="#000" x="-9" dy="0.32em">56</text></g><g class="tick" opacity="1" transform="translate(0,181.48101265822777)"><line stroke="#000" x2="-6"></line><text fill="#000" x="-9" dy="0.32em">58</text></g><g class="tick" opacity="1" transform="translate(0,154.26582278480993)"><line stroke="#000" x2="-6"></line><text fill="#000" x="-9" dy="0.32em">60</text></g><g class="tick" opacity="1" transform="translate(0,127.0506329113922)"><line stroke="#000" x2="-6"></line><text fill="#000" x="-9" dy="0.32em">62</text></g><g class="tick" opacity="1" transform="translate(0,99.83544303797436)"><line stroke="#000" x2="-6"></line><text fill="#000" x="-9" dy="0.32em">64</text></g><g class="tick" opacity="1" transform="translate(0,72.62025316455652)"><line stroke="#000" x2="-6"></line><text fill="#000" x="-9" dy="0.32em">66</text></g><g class="tick" opacity="1" transform="translate(0,45.40506329113879)"><line stroke="#000" x2="-6"></line><text fill="#000" x="-9" dy="0.32em">68</text></g><g class="tick" opacity="1" transform="translate(0,18.189873417720946)"><line stroke="#000" x2="-6"></line><text fill="#000" x="-9" dy="0.32em">70</text></g></g><g transform="translate(217.5, 0)"><g class="boxoutline"><rect x="-50" y="201.3924050632911" width="100" height="146.96202531645548"></rect></g><g class="boxoutline"><line x1="-50" y1="416.3924050632911" x2="50" y2="416.3924050632911"></line></g><g class="boxoutline"><line x1="-50" y1="106.1392405063288" x2="50" y2="106.1392405063288"></line></g><g class="median"><line x1="-50" y1="269.43037974683557" x2="50" y2="269.43037974683557"></line></g><g class="boxoutline"><line x1="0" y1="201.3924050632911" x2="0" y2="106.1392405063288"></line></g><g class="boxoutline"><line x1="0" y1="348.3544303797466" x2="0" y2="416.3924050632911"></line></g></g><g transform="translate(435, 0)"><g class="boxoutline"><rect x="-50" y="172.81645569620366" width="100" height="121.10759493670889"></rect></g><g class="boxoutline"><line x1="-50" y1="395.98101265822777" x2="50" y2="395.98101265822777"></line></g><g class="boxoutline"><line x1="-50" y1="13.607594936708892" x2="50" y2="13.607594936708892"></line></g><g class="median"><line x1="-50" y1="242.21518987341778" x2="50" y2="242.21518987341778"></line></g><g class="boxoutline"><line x1="0" y1="172.81645569620366" x2="0" y2="13.607594936708892"></line></g><g class="boxoutline"><line x1="0" y1="293.92405063291255" x2="0" y2="395.98101265822777"></line></g></g><g transform="translate(652.5, 0)"><g class="boxoutline"><rect x="-50" y="224.52531645569684" width="100" height="107.5"></rect></g><g class="boxoutline"><line x1="-50" y1="413.67088607595025" x2="50" y2="413.67088607595025"></line></g><g class="boxoutline"><line x1="-50" y1="73.48101265822777" x2="50" y2="73.48101265822777"></line></g><g class="median"><line x1="-50" y1="283.03797468354446" x2="50" y2="283.03797468354446"></line></g><g class="boxoutline"><line x1="0" y1="224.52531645569684" x2="0" y2="73.48101265822777"></line></g><g class="boxoutline"><line x1="0" y1="332.02531645569684" x2="0" y2="413.67088607595025"></line></g></g><g class="grid" fill="none" font-size="10" font-family="sans-serif" text-anchor="end"><path class="domain" stroke="#000" d="M870,430.5H0.5V0.5H870"></path><g class="tick" opacity="1" transform="translate(0,426.41772151898795)"><line stroke="#000" x2="870"></line><text fill="#000" x="-3" dy="0.32em"></text></g><g class="tick" opacity="1" transform="translate(0,358.3797468354435)"><line stroke="#000" x2="870"></line><text fill="#000" x="-3" dy="0.32em"></text></g><g class="tick" opacity="1" transform="translate(0,290.3417721518989)"><line stroke="#000" x2="870"></line><text fill="#000" x="-3" dy="0.32em"></text></g><g class="tick" opacity="1" transform="translate(0,222.30379746835445)"><line stroke="#000" x2="870"></line><text fill="#000" x="-3" dy="0.32em"></text></g><g class="tick" opacity="1" transform="translate(0,154.26582278480993)"><line stroke="#000" x2="870"></line><text fill="#000" x="-3" dy="0.32em"></text></g><g class="tick" opacity="1" transform="translate(0,86.22784810126547)"><line stroke="#000" x2="870"></line><text fill="#000" x="-3" dy="0.32em"></text></g><g class="tick" opacity="1" transform="translate(0,18.189873417720946)"><line stroke="#000" x2="870"></line><text fill="#000" x="-3" dy="0.32em"></text></g></g></g><g transform="translate(277.5 ,460)"><text class="legend" transform="translate(0,0)" font-size="14px" style="text-anchor: middle;">mapbox 0.40.1</text><text class="legend" transform="translate(0,18)" font-size="14px" style="text-anchor: middle;">sample size = 50</text><text class="legend" transform="translate(0,36)" font-size="14px" style="text-anchor: middle;">1 outlier filtered out</text></g><g transform="translate(495 ,460)"><text class="legend" transform="translate(0,0)" font-size="14px" style="text-anchor: middle;">mapbox 0.44.1</text><text class="legend" transform="translate(0,18)" font-size="14px" style="text-anchor: middle;">sample size = 50</text><text class="legend" transform="translate(0,36)" font-size="14px" style="text-anchor: middle;">1 outlier filtered out</text></g><g transform="translate(712.5 ,460)"><text class="legend" transform="translate(0,0)" font-size="14px" style="text-anchor: middle;">mapbox 0.47.0</text><text class="legend" transform="translate(0,18)" font-size="14px" style="text-anchor: middle;">sample size = 50</text><text class="legend" transform="translate(0,36)" font-size="14px" style="text-anchor: middle;">0 outlier filtered out</text></g><text transform="rotate(-90)" y="0" x="-215" dy="1em" style="text-anchor: middle;">Maximum time spent rendering in a frame (in ms)</text></svg>