<svg xmlns="http://www.w3.org/2000/svg" width="960" height="500"><defs><style type="text/css"><![CDATA[ 
.boxoutline line {
  stroke: #000;
}
.boxoutline rect {
  stroke: #000;
  fill: #fff;
}
.median line {
  stroke: red
}
.grid line {
  stroke: lightgrey;
  stroke-opacity: 0.7;
  shape-rendering: crispEdges;
}
 ]]></style></defs><g transform="translate(65,23)"><g class="axis axis--y" fill="none" font-size="10" font-family="sans-serif" text-anchor="end"><path class="domain" stroke="#000" d="M-6,457.5H0.5V0.5H-6"></path><g class="tick" opacity="1" transform="translate(0,457.0439121756487)"><line stroke="#000" x2="-6"></line><text fill="#000" x="-9" dy="0.32em">0</text></g><g class="tick" opacity="1" transform="translate(0,411.43512974051896)"><line stroke="#000" x2="-6"></line><text fill="#000" x="-9" dy="0.32em">100</text></g><g class="tick" opacity="1" transform="translate(0,365.8263473053892)"><line stroke="#000" x2="-6"></line><text fill="#000" x="-9" dy="0.32em">200</text></g><g class="tick" opacity="1" transform="translate(0,320.2175648702595)"><line stroke="#000" x2="-6"></line><text fill="#000" x="-9" dy="0.32em">300</text></g><g class="tick" opacity="1" transform="translate(0,274.60878243512974)"><line stroke="#000" x2="-6"></line><text fill="#000" x="-9" dy="0.32em">400</text></g><g class="tick" opacity="1" transform="translate(0,229)"><line stroke="#000" x2="-6"></line><text fill="#000" x="-9" dy="0.32em">500</text></g><g class="tick" opacity="1" transform="translate(0,183.39121756487026)"><line stroke="#000" x2="-6"></line><text fill="#000" x="-9" dy="0.32em">600</text></g><g class="tick" opacity="1" transform="translate(0,137.78243512974052)"><line stroke="#000" x2="-6"></line><text fill="#000" x="-9" dy="0.32em">700</text></g><g class="tick" opacity="1" transform="translate(0,92.17365269461078)"><line stroke="#000" x2="-6"></line><text fill="#000" x="-9" dy="0.32em">800</text></g><g class="tick" opacity="1" transform="translate(0,46.56487025948104)"><line stroke="#000" x2="-6"></line><text fill="#000" x="-9" dy="0.32em">900</text></g><g class="tick" opacity="1" transform="translate(0,0.9560878243513002)"><line stroke="#000" x2="-6"></line><text fill="#000" x="-9" dy="0.32em">1,000</text></g></g><g transform="translate(179, 0)"><g class="boxoutline"><rect x="-50" y="386.07834331337324" width="100" height="8.072754491017974"></rect></g><g class="boxoutline"><line x1="-50" y1="414.90309381237523" x2="50" y2="414.90309381237523"></line></g><g class="boxoutline"><line x1="-50" y1="377.18463073852297" x2="50" y2="377.18463073852297"></line></g><g class="median"><line x1="-50" y1="389.3621756487026" x2="50" y2="389.3621756487026"></line></g><g class="boxoutline"><line x1="0" y1="386.07834331337324" x2="0" y2="377.18463073852297"></line></g><g class="boxoutline"><line x1="0" y1="394.1510978043912" x2="0" y2="414.90309381237523"></line></g></g><g transform="translate(358, 0)"><g class="boxoutline"><rect x="-50" y="365.7824351297405" width="100" height="11.812674650698568"></rect></g><g class="boxoutline"><line x1="-50" y1="396.3403193612774" x2="50" y2="396.3403193612774"></line></g><g class="boxoutline"><line x1="-50" y1="348.49670658682635" x2="50" y2="348.49670658682635"></line></g><g class="median"><line x1="-50" y1="369.20309381237524" x2="50" y2="369.20309381237524"></line></g><g class="boxoutline"><line x1="0" y1="365.7824351297405" x2="0" y2="348.49670658682635"></line></g><g class="boxoutline"><line x1="0" y1="377.5951097804391" x2="0" y2="396.3403193612774"></line></g></g><g transform="translate(537, 0)"><g class="boxoutline"><rect x="-50" y="371.6203592814371" width="100" height="14.321157684630748"></rect></g><g class="boxoutline"><line x1="-50" y1="418.2325349301397" x2="50" y2="418.2325349301397"></line></g><g class="boxoutline"><line x1="-50" y1="347.58453093812375" x2="50" y2="347.58453093812375"></line></g><g class="median"><line x1="-50" y1="375.17784431137727" x2="50" y2="375.17784431137727"></line></g><g class="boxoutline"><line x1="0" y1="371.6203592814371" x2="0" y2="347.58453093812375"></line></g><g class="boxoutline"><line x1="0" y1="385.94151696606787" x2="0" y2="418.2325349301397"></line></g></g><g transform="translate(716, 0)"><g class="boxoutline"><rect x="-50" y="378.8721556886228" width="100" height="10.626846307385222"></rect></g><g class="boxoutline"><line x1="-50" y1="409.4756487025948" x2="50" y2="409.4756487025948"></line></g><g class="boxoutline"><line x1="-50" y1="359.2147704590818" x2="50" y2="359.2147704590818"></line></g><g class="median"><line x1="-50" y1="380.901746506986" x2="50" y2="380.901746506986"></line></g><g class="boxoutline"><line x1="0" y1="378.8721556886228" x2="0" y2="359.2147704590818"></line></g><g class="boxoutline"><line x1="0" y1="389.499001996008" x2="0" y2="409.4756487025948"></line></g></g><g class="grid" fill="none" font-size="10" font-family="sans-serif" text-anchor="end"><path class="domain" stroke="#000" d="M895,457.5H0.5V0.5H895"></path><g class="tick" opacity="1" transform="translate(0,457.0439121756487)"><line stroke="#000" x2="895"></line><text fill="#000" x="-3" dy="0.32em"></text></g><g class="tick" opacity="1" transform="translate(0,365.8263473053892)"><line stroke="#000" x2="895"></line><text fill="#000" x="-3" dy="0.32em"></text></g><g class="tick" opacity="1" transform="translate(0,274.60878243512974)"><line stroke="#000" x2="895"></line><text fill="#000" x="-3" dy="0.32em"></text></g><g class="tick" opacity="1" transform="translate(0,183.39121756487026)"><line stroke="#000" x2="895"></line><text fill="#000" x="-3" dy="0.32em"></text></g><g class="tick" opacity="1" transform="translate(0,92.17365269461078)"><line stroke="#000" x2="895"></line><text fill="#000" x="-3" dy="0.32em"></text></g><g class="tick" opacity="1" transform="translate(0,0.9560878243513002)"><line stroke="#000" x2="895"></line><text fill="#000" x="-3" dy="0.32em"></text></g></g></g><g transform="translate(244 ,500)"><text class="legend" transform="translate(0, 10)" font-size="14px" style="text-anchor: middle;">A</text></g><g transform="translate(423 ,500)"><text class="legend" transform="translate(0, 10)" font-size="14px" style="text-anchor: middle;">B</text></g><g transform="translate(602 ,500)"><text class="legend" transform="translate(0, 10)" font-size="14px" style="text-anchor: middle;">C</text></g><g transform="translate(781 ,500)"><text class="legend" transform="translate(0, 10)" font-size="14px" style="text-anchor: middle;">D</text></g></svg>