<svg xmlns="http://www.w3.org/2000/svg" width="960" height="500"><defs><style type="text/css"><![CDATA[ 
.boxoutline line {
  stroke: #000;
}
.boxoutline rect {
  stroke: #000;
  fill: #fff;
}
.median line {
  stroke: red
}
.grid line {
  stroke: lightgrey;
  stroke-opacity: 0.7;
  shape-rendering: crispEdges;
}
 ]]></style></defs><g transform="translate(65,23)"><g class="axis axis--y" fill="none" font-size="10" font-family="sans-serif" text-anchor="end"><path class="domain" stroke="#000" d="M-6,457.5H0.5V0.5H-6"></path><g class="tick" opacity="1" transform="translate(0,457.0439121756487)"><line stroke="#000" x2="-6"></line><text fill="#000" x="-9" dy="0.32em">0</text></g><g class="tick" opacity="1" transform="translate(0,411.43512974051896)"><line stroke="#000" x2="-6"></line><text fill="#000" x="-9" dy="0.32em">100</text></g><g class="tick" opacity="1" transform="translate(0,365.8263473053892)"><line stroke="#000" x2="-6"></line><text fill="#000" x="-9" dy="0.32em">200</text></g><g class="tick" opacity="1" transform="translate(0,320.2175648702595)"><line stroke="#000" x2="-6"></line><text fill="#000" x="-9" dy="0.32em">300</text></g><g class="tick" opacity="1" transform="translate(0,274.60878243512974)"><line stroke="#000" x2="-6"></line><text fill="#000" x="-9" dy="0.32em">400</text></g><g class="tick" opacity="1" transform="translate(0,229)"><line stroke="#000" x2="-6"></line><text fill="#000" x="-9" dy="0.32em">500</text></g><g class="tick" opacity="1" transform="translate(0,183.39121756487026)"><line stroke="#000" x2="-6"></line><text fill="#000" x="-9" dy="0.32em">600</text></g><g class="tick" opacity="1" transform="translate(0,137.78243512974052)"><line stroke="#000" x2="-6"></line><text fill="#000" x="-9" dy="0.32em">700</text></g><g class="tick" opacity="1" transform="translate(0,92.17365269461078)"><line stroke="#000" x2="-6"></line><text fill="#000" x="-9" dy="0.32em">800</text></g><g class="tick" opacity="1" transform="translate(0,46.56487025948104)"><line stroke="#000" x2="-6"></line><text fill="#000" x="-9" dy="0.32em">900</text></g><g class="tick" opacity="1" transform="translate(0,0.9560878243513002)"><line stroke="#000" x2="-6"></line><text fill="#000" x="-9" dy="0.32em">1,000</text></g></g><g transform="translate(537, 0)"><g class="boxoutline"><rect x="-50" y="141.02235528942128" width="100" height="53.043013972055746"></rect></g><g class="boxoutline"><line x1="-50" y1="235.29570858283415" x2="50" y2="235.29570858283415"></line></g><g class="boxoutline"><line x1="-50" y1="76.75958083832342" x2="50" y2="76.75958083832342"></line></g><g class="median"><line x1="-50" y1="161.8655688622755" x2="50" y2="161.8655688622755"></line></g><g class="boxoutline"><line x1="0" y1="141.02235528942128" x2="0" y2="76.75958083832342"></line></g><g class="boxoutline"><line x1="0" y1="194.06536926147703" x2="0" y2="235.29570858283415"></line></g></g><g transform="translate(716, 0)"><g class="boxoutline"><rect x="-50" y="108.86816367265482" width="100" height="76.94201596806357"></rect></g><g class="boxoutline"><line x1="-50" y1="247.9749500998003" x2="50" y2="247.9749500998003"></line></g><g class="boxoutline"><line x1="-50" y1="41.23033932135729" x2="50" y2="41.23033932135729"></line></g><g class="median"><line x1="-50" y1="135.2528443113772" x2="50" y2="135.2528443113772"></line></g><g class="boxoutline"><line x1="0" y1="108.86816367265482" x2="0" y2="41.23033932135729"></line></g><g class="boxoutline"><line x1="0" y1="185.8101796407184" x2="0" y2="247.9749500998003"></line></g></g><g class="grid" fill="none" font-size="10" font-family="sans-serif" text-anchor="end"><path class="domain" stroke="#000" d="M895,457.5H0.5V0.5H895"></path><g class="tick" opacity="1" transform="translate(0,457.0439121756487)"><line stroke="#000" x2="895"></line><text fill="#000" x="-3" dy="0.32em"></text></g><g class="tick" opacity="1" transform="translate(0,365.8263473053892)"><line stroke="#000" x2="895"></line><text fill="#000" x="-3" dy="0.32em"></text></g><g class="tick" opacity="1" transform="translate(0,274.60878243512974)"><line stroke="#000" x2="895"></line><text fill="#000" x="-3" dy="0.32em"></text></g><g class="tick" opacity="1" transform="translate(0,183.39121756487026)"><line stroke="#000" x2="895"></line><text fill="#000" x="-3" dy="0.32em"></text></g><g class="tick" opacity="1" transform="translate(0,92.17365269461078)"><line stroke="#000" x2="895"></line><text fill="#000" x="-3" dy="0.32em"></text></g><g class="tick" opacity="1" transform="translate(0,0.9560878243513002)"><line stroke="#000" x2="895"></line><text fill="#000" x="-3" dy="0.32em"></text></g></g></g><g transform="translate(244 ,500)"><text class="legend" transform="translate(0, 10)" font-size="14px" style="text-anchor: middle;">A</text></g><g transform="translate(423 ,500)"><text class="legend" transform="translate(0, 10)" font-size="14px" style="text-anchor: middle;">B</text></g><g transform="translate(602 ,500)"><text class="legend" transform="translate(0, 10)" font-size="14px" style="text-anchor: middle;">C</text></g><g transform="translate(781 ,500)"><text class="legend" transform="translate(0, 10)" font-size="14px" style="text-anchor: middle;">D</text></g></svg>